{
  "mime": "application/vnd.openxmlformats-officedocument.wordprocessingml.document",
  "documentProperties": {
    "date": "2015-09-16T04:17:00Z",
    "cp:revision": "2",
    "Total-Time": "2",
    "extended-properties:AppVersion": "15.0000",
    "meta:paragraph-count": "91",
    "meta:word-count": "128",
    "custom:RedEyeId": "alacer_001",
    "dc:creator": "bob",
    "extended-properties:Company": "",
    "Word-Count": "128",
    "dcterms:created": "2015-08-31T05:49:00Z",
    "language": "en-AU",
    "meta:line-count": "99",
    "Last-Modified": "2015-09-16T04:17:00Z",
    "dcterms:modified": "2015-09-16T04:17:00Z",
    "Manager": "",
    "Last-Save-Date": "2015-09-16T04:17:00Z",
    "meta:character-count": "697",
    "Template": "Normal.dotm",
    "Line-Count": "99",
    "Paragraph-Count": "91",
    "meta:save-date": "2015-09-16T04:17:00Z",
    "meta:character-count-with-spaces": "734",
    "Application-Name": "Microsoft Macintosh Word",
    "extended-properties:TotalTime": "2",
    "modified": "2015-09-16T04:17:00Z",
    "extended-properties:Manager": "",
    "Content-Type": "application/vnd.openxmlformats-officedocument.wordprocessingml.document",
    "X-Parsed-By": "org.apache.tika.parser.DefaultParser",
    "creator": "bob",
    "dc:language": "en-AU",
    "meta:author": "bob",
    "meta:creation-date": "2015-08-31T05:49:00Z",
    "extended-properties:Application": "Microsoft Macintosh Word",
    "meta:last-author": "George Treacy",
    "Creation-Date": "2015-08-31T05:49:00Z",
    "xmpTPg:NPages": "2",
    "Character-Count-With-Spaces": "734",
    "Last-Author": "George Treacy",
    "Character Count": "697",
    "Page-Count": "2",
    "Revision-Number": "2",
    "Application-Version": "15.0000",
    "extended-properties:Template": "Normal.dotm",
    "Author": "bob",
    "publisher": "",
    "meta:page-count": "2",
    "dc:publisher": ""
  },
  "embeddedAttributes": {
    "Document Title:": "My Title",
    "Document Number:": "MY DOCUMENT NUMBER",
    "Document Type:": "My Doc Type",
    "Transmittal #:": "TRANS NUMBER",
    "Date of Issue:": "28/11/1965",
    "WBS:": "MY WBS CODE",
    "Discipline:": "My Discipline",
    "Current Revision #:": "MY REV NUMBER",
    "Contractor or Vendor:": "My Contractor"
  },
  "revisions": [
    {
      "number": "Revision Number",
      "date": "Revision Date",
      "comments": "Comments"
    },
    {
      "number": "1",
      "date": "11/11/1999",
      "comments": "a comment"
    },
    {
      "number": "2",
      "date": "12/12/2000",
      "comments": "another comment"
    }
  ]
}
